{
    "count": 4557, 
    "next": "http://www.freesound.org/apiv2/search/text/?&query=cars&page=3&page_size=3", 
    "results": [
        {
            "id": 175855, 
            "name": "120218_01 car horn (2).wav", 
            "tags": [
                "horns", 
                "city", 
                "traffic", 
                "cars", 
                "beep"
            ], 
            "license": "http://creativecommons.org/publicdomain/zero/1.0/", 
            "username": "toiletrolltube"
        }, 
        {
            "id": 175854, 
            "name": "120216_02 car horn (6).WAV", 
            "tags": [
                "horns", 
                "city", 
                "traffic", 
                "cars", 
                "beep"
            ], 
            "license": "http://creativecommons.org/publicdomain/zero/1.0/", 
            "username": "toiletrolltube"
        }, 
        {
            "id": 175853, 
            "name": "120213_02 car horn (4).wav", 
            "tags": [
                "horns", 
                "city", 
                "traffic", 
                "cars", 
                "beep"
            ], 
            "license": "http://creativecommons.org/publicdomain/zero/1.0/", 
            "username": "toiletrolltube"
        }
    ], 
    "previous": "http://www.freesound.org/apiv2/search/text/?&query=cars&page=1&page_size=3"
}